<?xml version="1.0" standalone="no"?>
<!DOCTYPE svg PUBLIC "-//W3C//DTD SVG 20010904//EN"
 "http://www.w3.org/TR/2001/REC-SVG-20010904/DTD/svg10.dtd">
<svg version="1.0" xmlns="http://www.w3.org/2000/svg"
 width="225.000000pt" height="225.000000pt" viewBox="0 0 225.000000 225.000000"
 preserveAspectRatio="xMidYMid meet">
<metadata>
Created by potrace 1.11, written by Peter Selinger 2001-2013
</metadata>
<g transform="translate(0.000000,225.000000) scale(0.100000,-0.100000)"
fill="#000000" stroke="none">
<path d="M990 2123 c-434 -64 -774 -389 -853 -814 -28 -154 -15 -345 35 -494
24 -73 95 -218 120 -245 10 -10 18 -23 18 -27 0 -16 165 -179 223 -222 88 -64
241 -137 332 -157 257 -59 473 -37 695 69 36 18 83 44 105 60 22 15 51 35 65
45 35 23 139 128 182 182 197 248 259 616 156 925 -24 73 -95 218 -120 245
-10 10 -18 23 -18 29 0 18 -185 196 -243 235 -96 63 -229 123 -312 142 -124
28 -296 40 -385 27z"/>
</g>
</svg>
